Holly Hall - tidymodels
…
# Create data frames for the two sets:
train_data <- training(data_split)
test_data  <- testing(data_split)

Create recipe

Show the code

ad_rec <- 
  recipe(Class ~ ., data = train_data) 

summary(ad_rec)

# A tibble: 131 × 4
   variable                        type      role      source  
   <chr>                           <list>    <chr>     <chr>   
 1 ACE_CD143_Angiotensin_Converti  <chr [2]> predictor original
 2 ACTH_Adrenocorticotropic_Hormon <chr [2]> predictor original
 3 AXL                             <chr [2]> predictor original
 4 Adiponectin                     <chr [2]> predictor original
 5 Alpha_1_Antichymotrypsin        <chr [2]> predictor original
 6 Alpha_1_Antitrypsin             <chr [2]> predictor original
 7 Alpha_1_Microglobulin           <chr [2]> predictor original
 8 Alpha_2_Macroglobulin           <chr [2]> predictor original
 9 Angiopoietin_2_ANG_2            <chr [2]> predictor original
10 Angiotensinogen                 <chr [2]> predictor original
# ℹ 121 more rows
